{
  "title": "Buzo Bolsillo Canguro con Vivos",
  "id": "114SCBCV",
  "tipo": "buzo",
  "ordenes": [2, 3, 4, 6, 8, 10, 11, 14, 18, 19, 20, 21, 214, 25, 38, 55],
  "views": ["frente", "espalda", "lateral_derecho", "lateral_izquierdo"],
  "shadows": {
    "frente": [
      "frente/sombras.png",
      "frente/luces.png"
    ],
    "espalda": [
      "espalda/sombras.png",
      "espalda/luces.png"
    ],
    "lateral_derecho": [
      "lateral_derecho/sombras.png",
      "lateral_derecho/luces.png"
    ],
    "lateral_izquierdo": [
      "lateral_izquierdo/sombras.png",
      "lateral_izquierdo/luces.png"
    ]
  },
  "images": [
    {
      "source": "punos.png",
      "title": "Puños"
    },
    {
      "source": "bolsillo.png",
      "title": "Bolsillo"
    },
    {
      "source": "bolsillo_vivos.png",
      "title": "Bolsillo Vivos"
    },
    {
      "source": "cintura.png",
      "title": "Cintura"
    }
  ]
}
