[
  {
    "title": "Tiras 1 CM FRENTE",
    "thumbnail": "assets/img/designs/chombas/frente/1cm/B.png",
    "designs": [
      {
        "source": "assets/img/designs/chombas/frente/1cm/B.png",
        "thumbnail": "assets/img/designs/chombas/frente/1cm/B.png",
        "title": "1CM - Frente B",
        "parameters": {
          "zChangeable": true,
          "left": 400,
          "top": 390,
          "removable": true,
          "draggable": false,
          "rotatable": false,
          "resizable": false,
          "boundingBox": "Shadow",
          "autoCenter": true,
          "colors" : "jersey"
        },
        "show": true
      },
      {
        "source": "assets/img/designs/chombas/frente/1cm/A.png",
        "thumbnail": "assets/img/designs/chombas/frente/1cm/A.png",
        "title": "1CM - Frente A",
        "parameters": {
          "zChangeable": true,
          "left": 400,
          "top": 390,
          "removable": true,
          "draggable": false,
          "rotatable": false,
          "resizable": false,
          "boundingBox": "Shadow",
          "autoCenter": true,
          "colors" : "jersey"
        },
        "show": true
      }
    ],
    "show": true
  },
  {
    "title": "Tiras 1 CM ESPALDA",
    "thumbnail": "assets/img/designs/chombas/espalda/1cm/A.png",
    "designs": [
      {
        "source": "assets/img/designs/chombas/espalda/1cm/A.png",
        "thumbnail": "assets/img/designs/chombas/espalda/1cm/A.png",
        "title": "1CM - Espalda",
        "parameters": {
          "zChangeable": true,
          "left": 400,
          "top": 390,
          "removable": true,
          "draggable": false,
          "rotatable": false,
          "resizable": false,
          "boundingBox": "Shadow",
          "autoCenter": true,
          "colors" : "jersey"
        },
        "show": true
      },
      {
        "source": "assets/img/designs/chombas/espalda/1cm/B.png",
        "thumbnail": "assets/img/designs/chombas/espalda/1cm/B.png",
        "title": "1CM - Espalda",
        "parameters": {
          "zChangeable": true,
          "left": 400,
          "top": 390,
          "removable": true,
          "draggable": false,
          "rotatable": false,
          "resizable": false,
          "boundingBox": "Shadow",
          "autoCenter": true,
          "colors" : "jersey"
        },
        "show": true
      }
    ],
    "show": true
  },
  {
    "title": "Tejidos Cuello Frente",
    "thumbnail": "assets/img/designs/tejidos_chombas/preview_cuello.png",
    "designs": [
        {
        "source": "assets/img/designs/tejidos_chombas/tejido_1/frente/1-tejido-cuello-chomba-frente.png",
        "thumbnail": "assets/img/designs/tejidos_chombas/tejido_1/frente/preview_cuello.png",
        "title": "Tejido N°1 Frente Cuello",
        "parameters": {
          "zChangeable": true,
          "left": 400,
          "top": 390,
          "removable": true,
          "draggable": false,
          "rotatable": false,
          "resizable": false,
          "boundingBox": "Shadow",
          "colors" : "jersey",
          "autoCenter": true
        },
        "show": true
      },
      {
        "source": "assets/img/designs/tejidos_chombas/tejido_2/frente/2-tejido-cuello-chomba-frente.png",
        "thumbnail": "assets/img/designs/tejidos_chombas/tejido_2/frente/preview_cuello.png",
        "title": "Tejido N°2 Frente Cuello",
        "parameters": {
          "zChangeable": true,
          "left": 400,
          "top": 390,
          "removable": true,
          "draggable": false,
          "rotatable": false,
          "resizable": false,
          "boundingBox": "Shadow",
          "autoCenter": true,
          "colors" : "jersey"
        },
        "show": true
      },
      {
        "source": "assets/img/designs/tejidos_chombas/tejido_3/frente/3-tejido-cuello-chomba-frente-A.png",
        "thumbnail": "assets/img/designs/tejidos_chombas/tejido_3/frente/preview_cuello-A.png",
        "title": "Tejido N°3 Frente Cuello A",
        "parameters": {
          "zChangeable": true,
          "left": 400,
          "top": 390,
          "removable": true,
          "draggable": false,
          "rotatable": false,
          "resizable": false,
          "boundingBox": "Shadow",
          "autoCenter": true,
          "colors" : "jersey"
        },
        "show": true
      },
      {
        "source": "assets/img/designs/tejidos_chombas/tejido_3/frente/3-tejido-cuello-chomba-frente-B.png",
        "thumbnail": "assets/img/designs/tejidos_chombas/tejido_3/frente/preview_cuello-B.png",
        "title": "Tejido N°3 Frente Cuello B",
        "parameters": {
          "zChangeable": true,
          "left": 400,
          "top": 390,
          "removable": true,
          "draggable": false,
          "rotatable": false,
          "resizable": false,
          "boundingBox": "Shadow",
          "autoCenter": true,
          "colors" : "jersey"
        },
        "show": true
      },
      {
        "source": "assets/img/designs/tejidos_chombas/tejido_4/frente/4-tejido-cuello-chomba-frente-A.png",
        "thumbnail": "assets/img/designs/tejidos_chombas/tejido_4/frente/preview_cuello-A.png",
        "title": "Tejido N°4 Frente Cuello A",
        "parameters": {
          "zChangeable": true,
          "left": 400,
          "top": 390,
          "removable": true,
          "draggable": false,
          "rotatable": false,
          "resizable": false,
          "boundingBox": "Shadow",
          "autoCenter": true,
          "colors" : "jersey"
        },
        "show": true
      },
      {
        "source": "assets/img/designs/tejidos_chombas/tejido_4/frente/4-tejido-cuello-chomba-frente-B.png",
        "thumbnail": "assets/img/designs/tejidos_chombas/tejido_4/frente/preview_cuello-B.png",
        "title": "Tejido N°4 Frente Cuello B",
        "parameters": {
          "zChangeable": true,
          "left": 400,
          "top": 390,
          "removable": true,
          "draggable": false,
          "rotatable": false,
          "resizable": false,
          "boundingBox": "Shadow",
          "autoCenter": true,
          "colors" : "jersey"
        },
        "show": true
      },
      {
        "source": "assets/img/designs/tejidos_chombas/tejido_5/frente/5-tejido-cuello-chomba-frente-A.png",
        "thumbnail": "assets/img/designs/tejidos_chombas/tejido_5/frente/preview_cuello-A.png",
        "title": "Tejido N°5 Frente Cuello A",
        "parameters": {
          "zChangeable": true,
          "left": 400,
          "top": 390,
          "removable": true,
          "draggable": false,
          "rotatable": false,
          "resizable": false,
          "boundingBox": "Shadow",
          "autoCenter": true,
          "colors" : "jersey"
        },
        "show": true
      },
      {
        "source": "assets/img/designs/tejidos_chombas/tejido_5/frente/5-tejido-cuello-chomba-frente-B.png",
        "thumbnail": "assets/img/designs/tejidos_chombas/tejido_5/frente/preview_cuello-B.png",
        "title": "Tejido N°5 Frente Cuello B",
        "parameters": {
          "zChangeable": true,
          "left": 400,
          "top": 390,
          "removable": true,
          "draggable": false,
          "rotatable": false,
          "resizable": false,
          "boundingBox": "Shadow",
          "autoCenter": true,
          "colors" : "jersey"
        },
        "show": true
      }
    ],
    "show": true
  }
]
