[{
        "title": "Campera Con Capucha, cordones y sin bolsillos",
        "id": "225CCSBC",
        "thumbnail": "assets/img/arquitectura/camperas/sin_bolsillos/capucha/cordones/preview/frente/preview.png",
        "options" : {
        "usePrintingBoxAsBounding" : true,
        "boundingBoxMode": "none",
        "printingBox" : {
            "left" : 280.0,
            "top" : 325.0,
            "width" : 235.0,
            "height" : 355.0,
            "visibility" : false
        }
        },
        "elements": [{
                "type": "image",
                "source": "assets/img/modelo/pixel.png",
                "title": "Color general",
                "parameters": {
                    "left": 400,
                    "top": 329,
                    "colorLinkGroup": "general",
                     "showInColorSelection": true, "colors" : "frisaColors",
                    "z": -1
                }
            },
            {
                "type": "image",
                "source": "assets/img/arquitectura/camperas/sin_bolsillos/capucha/cordones/frente/sombras.png",
                "title": "Shadow",
                "parameters": {
                    "left": 400,
                    "top": 390,
                    "boundingBoxMode": "none",
                    "locked": true,
                     "showInColorSelection": false, "colors" : "frisaColors",
                    "removable": false,
                    "draggable": false,
                    "resizable": false,
                    "rotatable": false,
                    "advancedEditing": false,
                    "editable": false,
                    "uploadZone": false,
                    "colors": false,
                    "topped": true,
                    "replace": "base"
                }
            },
            {
                "type": "image",
                "source": "assets/img/arquitectura/camperas/sin_bolsillos/capucha/cordones/frente/luces.png",
                "title": "Shadow",
                "parameters": {
                    "left": 400,
                    "top": 390,
                    "boundingBoxMode": "none",
                    "locked": true,
                     "showInColorSelection": false, "colors" : "frisaColors",
                    "removable": false,
                    "draggable": false,
                    "resizable": false,
                    "rotatable": false,
                    "advancedEditing": false,
                    "editable": false,
                    "uploadZone": false,
                    "colors": false,
                    "topped": true,
                    "replace": "cuello"
                }
            },
            {
                "type": "image",
                "source": "assets/img/arquitectura/camperas/sin_bolsillos/capucha/cordones/frente/base.png",
                "title": "Base",
                "parameters": {
                    "left": 400,
                    "top": 390,
                    "boundingBoxMode": "none",
                    "colorLinkGroup": "base",
                    "fill": "#fff",
                     "showInColorSelection": true, "colors" : "frisaColors"
                }
            },
            {
                "type": "image",
                "source": "assets/img/arquitectura/camperas/sin_bolsillos/capucha/cordones/frente/punos.png",
                "title": "Puños",
                "parameters": {
                    "left": 400,
                    "top": 390,
                    "boundingBoxMode": "none",
                    "colorLinkGroup": "punos",
                    "fill": "#fff",
                     "showInColorSelection": true, "colors" : "frisaColors"
                }
            },
            {
                "type": "image",
                "source": "assets/img/arquitectura/camperas/sin_bolsillos/capucha/cordones/frente/cintura.png",
                "title": "Cintura",
                "parameters": {
                    "left": 400,
                    "top": 390,
                    "boundingBoxMode": "none",
                    "colorLinkGroup": "cintura",
                    "fill": "#fff",
                     "showInColorSelection": true, "colors" : "frisaColors"
                }
            },
            {
                "type": "image",
                "source": "assets/img/arquitectura/camperas/sin_bolsillos/capucha/cordones/frente/mangas.png",
                "title": "Mangas",
                "parameters": {
                    "left": 400,
                    "top": 390,
                    "boundingBoxMode": "none",
                    "colorLinkGroup": "mangas",
                    "fill": "#fff",
                     "showInColorSelection": true, "colors" : "frisaColors"
                }
            },
            {
                "type": "image",
                "source": "assets/img/arquitectura/camperas/sin_bolsillos/capucha/cordones/frente/cierre.png",
                "title": "Cierre",
                "parameters": {
                    "left": 400,
                    "top": 390,
                    "boundingBoxMode": "none",
                    "colorLinkGroup": "cierre",
                    "fill": "#fff",
                     "showInColorSelection": false, "colors" : "frisaColors"
                }
            },
            {
                "type": "image",
                "source": "assets/img/arquitectura/camperas/sin_bolsillos/capucha/cordones/frente/capucha.png",
                "title": "Capucha",
                "parameters": {
                    "left": 400,
                    "top": 390,
                    "boundingBoxMode": "none",
                    "colorLinkGroup": "capucha",
                    "fill": "#fff",
                     "showInColorSelection": false, "colors" : "frisaColors"
                }
            },
            {
                "type": "image",
                "source": "assets/img/arquitectura/camperas/sin_bolsillos/capucha/cordones/frente/capucha_interior.png",
                "title": "Capucha Interior",
                "parameters": {
                    "left": 400,
                    "top": 390,
                    "boundingBoxMode": "none",
                    "colorLinkGroup": "capucha_interior",
                    "fill": "#fff",
                     "showInColorSelection": false, "colors" : "jerseyColors"
                }
            },
            {
                "type": "image",
                "source": "assets/img/arquitectura/camperas/sin_bolsillos/capucha/cordones/frente/cordones.png",
                "title": "Cordones",
                "parameters": {
                "left": 400,
                "top": 390,
                "boundingBoxMode": "none",
                "colorLinkGroup": "cordones",
                "fill": "#fff",
                 "showInColorSelection": false, "colors" : "frisaColors"
                }
            },
            {
              "type": "image",
              "source": "assets/img/arquitectura/lineas_sisa_mediasisa.png",
              "title": "Lineas",
              "parameters": {
                "left": 400,
                "top": 390,
                "boundingBoxMode": "none",
                "fill": "#000",
                "showInColorSelection": true
              }
            }
        ]
        },
        {
        "title": "Espalda",
        "thumbnail": "assets/img/arquitectura/camperas/sin_bolsillos/capucha/cordones/preview/espalda/preview.png",
        "options" : {
        "usePrintingBoxAsBounding" : true,
        "boundingBoxMode": "none",
        "printingBox": {
          "left": 280.0,
          "top": 290.0,
          "width": 245.0,
          "height": 400.0,
          "visibility": false
        }
        },
        "elements": [{
                "type": "image",
                "source": "assets/img/modelo/pixel.png",
                "title": "Color general",
                "parameters": {
                    "left": 400,
                    "top": 329,
                    "colorLinkGroup": "general",
                     "showInColorSelection": true, "colors" : "frisaColors",
                    "z": -1
                }
            },
            {
                "type": "image",
                "source": "assets/img/arquitectura/camperas/sin_bolsillos/capucha/cordones/espalda/sombras.png",
                "title": "Shadow",
                "parameters": {
                    "left": 400,
                    "top": 390,
                    "boundingBoxMode": "none",
                    "locked": true,
                     "showInColorSelection": false, "colors" : "frisaColors",
                    "removable": false,
                    "draggable": false,
                    "resizable": false,
                    "rotatable": false,
                    "advancedEditing": false,
                    "editable": false,
                    "uploadZone": false,
                    "colors": false,
                    "topped": true,
                    "replace": "base"
                }
            },
            {
                "type": "image",
                "source": "assets/img/arquitectura/camperas/sin_bolsillos/capucha/cordones/espalda/luces.png",
                "title": "Shadow",
                "parameters": {
                    "left": 400,
                    "top": 390,
                    "boundingBoxMode": "none",
                    "locked": true,
                     "showInColorSelection": false, "colors" : "frisaColors",
                    "removable": false,
                    "draggable": false,
                    "resizable": false,
                    "rotatable": false,
                    "advancedEditing": false,
                    "editable": false,
                    "uploadZone": false,
                    "colors": false,
                    "topped": true,
                    "replace": "cuello"
                }
            },
            {
                "type": "image",
                "source": "assets/img/arquitectura/camperas/sin_bolsillos/capucha/cordones/espalda/base.png",
                "title": "Base",
                "parameters": {
                    "left": 400,
                    "top": 390,
                    "boundingBoxMode": "none",
                    "colorLinkGroup": "base",
                    "fill": "#fff",
                     "showInColorSelection": true, "colors" : "frisaColors"
                }
            },
            {
                "type": "image",
                "source": "assets/img/arquitectura/camperas/sin_bolsillos/capucha/cordones/espalda/punos.png",
                "title": "Puños",
                "parameters": {
                    "left": 400,
                    "top": 390,
                    "boundingBoxMode": "none",
                    "colorLinkGroup": "punos",
                    "fill": "#fff",
                     "showInColorSelection": true, "colors" : "frisaColors"
                }
            },
            {
                "type": "image",
                "source": "assets/img/arquitectura/camperas/sin_bolsillos/capucha/cordones/espalda/cintura.png",
                "title": "Cintura",
                "parameters": {
                    "left": 400,
                    "top": 390,
                    "boundingBoxMode": "none",
                    "colorLinkGroup": "cintura",
                    "fill": "#fff",
                     "showInColorSelection": true, "colors" : "frisaColors"
                }
            },
            {
                "type": "image",
                "source": "assets/img/arquitectura/camperas/sin_bolsillos/capucha/cordones/espalda/mangas.png",
                "title": "Mangas",
                "parameters": {
                    "left": 400,
                    "top": 390,
                    "boundingBoxMode": "none",
                    "colorLinkGroup": "mangas",
                    "fill": "#fff",
                     "showInColorSelection": true, "colors" : "frisaColors"
                }
            },
            {
                "type": "image",
                "source": "assets/img/arquitectura/camperas/sin_bolsillos/capucha/cordones/espalda/capucha.png",
                "title": "Capucha",
                "parameters": {
                    "left": 400,
                    "top": 390,
                    "boundingBoxMode": "none",
                    "colorLinkGroup": "capucha",
                    "fill": "#fff",
                     "showInColorSelection": false, "colors" : "frisaColors"
                }
            },
            {
              "type": "image",
              "source": "assets/img/arquitectura/lineas_sisa_mediasisa.png",
              "title": "Lineas",
              "parameters": {
                "left": 400,
                "top": 390,
                "boundingBoxMode": "none",
                "fill": "#000",
                "showInColorSelection": true
              }
            }
        ]
        },
        {
        "title": "Lateral Derecho",
        "thumbnail": "assets/img/arquitectura/camperas/sin_bolsillos/capucha/cordones/preview/lateral_derecho/preview.png",
        "options" : {
        "usePrintingBoxAsBounding" : true,
        "boundingBoxMode": "none",
        "printingBox": {
          "left": 365.0,
          "top": 325.0,
          "width": 70.0,
          "height": 400.0,
          "visibility": false
        }
        },
        "elements": [{
                "type": "image",
                "source": "assets/img/modelo/pixel.png",
                "title": "Color general",
                "parameters": {
                    "left": 400,
                    "top": 329,
                    "colorLinkGroup": "general",
                     "showInColorSelection": true, "colors" : "frisaColors",
                    "z": -1
                }
            },
            {
                "type": "image",
                "source": "assets/img/arquitectura/camperas/sin_bolsillos/capucha/cordones/lateral_derecho/sombras.png",
                "title": "Shadow",
                "parameters": {
                    "left": 400,
                    "top": 390,
                    "boundingBoxMode": "none",
                    "locked": true,
                     "showInColorSelection": false, "colors" : "frisaColors",
                    "removable": false,
                    "draggable": false,
                    "resizable": false,
                    "rotatable": false,
                    "advancedEditing": false,
                    "editable": false,
                    "uploadZone": false,
                    "colors": false,
                    "topped": true,
                    "replace": "base"
                }
            },
            {
                "type": "image",
                "source": "assets/img/arquitectura/camperas/sin_bolsillos/capucha/cordones/lateral_derecho/luces.png",
                "title": "Shadow",
                "parameters": {
                    "left": 400,
                    "top": 390,
                    "boundingBoxMode": "none",
                    "locked": true,
                     "showInColorSelection": false, "colors" : "frisaColors",
                    "removable": false,
                    "draggable": false,
                    "resizable": false,
                    "rotatable": false,
                    "advancedEditing": false,
                    "editable": false,
                    "uploadZone": false,
                    "colors": false,
                    "topped": true,
                    "replace": "cuello"
                }
            },
            {
                "type": "image",
                "source": "assets/img/arquitectura/camperas/sin_bolsillos/capucha/cordones/lateral_derecho/base.png",
                "title": "Base",
                "parameters": {
                    "left": 400,
                    "top": 390,
                    "boundingBoxMode": "none",
                    "colorLinkGroup": "base",
                    "fill": "#fff",
                     "showInColorSelection": true, "colors" : "frisaColors"
                }
            },
            {
                "type": "image",
                "source": "assets/img/arquitectura/camperas/sin_bolsillos/capucha/cordones/lateral_derecho/punos.png",
                "title": "Puños",
                "parameters": {
                    "left": 400,
                    "top": 390,
                    "boundingBoxMode": "none",
                    "colorLinkGroup": "punos",
                    "fill": "#fff",
                     "showInColorSelection": true, "colors" : "frisaColors"
                }
            },
            {
                "type": "image",
                "source": "assets/img/arquitectura/camperas/sin_bolsillos/capucha/cordones/lateral_derecho/cintura.png",
                "title": "Cintura",
                "parameters": {
                    "left": 400,
                    "top": 390,
                    "boundingBoxMode": "none",
                    "colorLinkGroup": "cintura",
                    "fill": "#fff",
                     "showInColorSelection": true, "colors" : "frisaColors"
                }
            },
            {
                "type": "image",
                "source": "assets/img/arquitectura/camperas/sin_bolsillos/capucha/cordones/lateral_derecho/mangas.png",
                "title": "Mangas",
                "parameters": {
                    "left": 400,
                    "top": 390,
                    "boundingBoxMode": "none",
                    "colorLinkGroup": "mangas",
                    "fill": "#fff",
                     "showInColorSelection": true, "colors" : "frisaColors"
                }
            },
            {
                "type": "image",
                "source": "assets/img/arquitectura/camperas/sin_bolsillos/capucha/cordones/lateral_derecho/capucha.png",
                "title": "Capucha",
                "parameters": {
                    "left": 400,
                    "top": 390,
                    "boundingBoxMode": "none",
                    "colorLinkGroup": "capucha",
                    "fill": "#fff",
                     "showInColorSelection": false, "colors" : "frisaColors"
                }
            },
            {
                "type": "image",
                "source": "assets/img/arquitectura/camperas/sin_bolsillos/capucha/cordones/lateral_derecho/cordones.png",
                "title": "Cordones",
                "parameters": {
                "left": 400,
                "top": 390,
                "boundingBoxMode": "none",
                "colorLinkGroup": "cordones",
                "fill": "#fff",
                 "showInColorSelection": false, "colors" : "frisaColors"
                }
            }
        ]
        },
        {
        "title": "Lateral Izquierdo",
        "thumbnail": "assets/img/arquitectura/camperas/sin_bolsillos/capucha/cordones/preview/lateral_izquierdo/preview.png",
        "options" : {
        "usePrintingBoxAsBounding" : true,
        "boundingBoxMode": "none",
        "printingBox" : {
          "left": 365.0,
          "top": 325.0,
          "width": 70.0,
          "height": 400.0,
            "visibility" : false
        }
        },
        "elements": [{
                "type": "image",
                "source": "assets/img/modelo/pixel.png",
                "title": "Color general",
                "parameters": {
                    "left": 400,
                    "top": 329,
                    "colorLinkGroup": "general",
                     "showInColorSelection": true, "colors" : "frisaColors",
                    "z": -1
                }
            },
            {
                "type": "image",
                "source": "assets/img/arquitectura/camperas/sin_bolsillos/capucha/cordones/lateral_izquierdo/sombras.png",
                "title": "Shadow",
                "parameters": {
                    "left": 400,
                    "top": 390,
                    "boundingBoxMode": "none",
                    "locked": true,
                     "showInColorSelection": false, "colors" : "frisaColors",
                    "removable": false,
                    "draggable": false,
                    "resizable": false,
                    "rotatable": false,
                    "advancedEditing": false,
                    "editable": false,
                    "uploadZone": false,
                    "colors": false,
                    "topped": true,
                    "replace": "base"
                }
            },
            {
                "type": "image",
                "source": "assets/img/arquitectura/camperas/sin_bolsillos/capucha/cordones/lateral_izquierdo/luces.png",
                "title": "Shadow",
                "parameters": {
                    "left": 400,
                    "top": 390,
                    "boundingBoxMode": "none",
                    "locked": true,
                     "showInColorSelection": false, "colors" : "frisaColors",
                    "removable": false,
                    "draggable": false,
                    "resizable": false,
                    "rotatable": false,
                    "advancedEditing": false,
                    "editable": false,
                    "uploadZone": false,
                    "colors": false,
                    "topped": true,
                    "replace": "cuello"
                }
            },
            {
                "type": "image",
                "source": "assets/img/arquitectura/camperas/sin_bolsillos/capucha/cordones/lateral_izquierdo/base.png",
                "title": "Base",
                "parameters": {
                    "left": 400,
                    "top": 390,
                    "boundingBoxMode": "none",
                    "colorLinkGroup": "base",
                    "fill": "#fff",
                     "showInColorSelection": true, "colors" : "frisaColors"
                }
            },
            {
                "type": "image",
                "source": "assets/img/arquitectura/camperas/sin_bolsillos/capucha/cordones/lateral_izquierdo/punos.png",
                "title": "Puños",
                "parameters": {
                    "left": 400,
                    "top": 390,
                    "boundingBoxMode": "none",
                    "colorLinkGroup": "punos",
                    "fill": "#fff",
                     "showInColorSelection": true, "colors" : "frisaColors"
                }
            },
            {
                "type": "image",
                "source": "assets/img/arquitectura/camperas/sin_bolsillos/capucha/cordones/lateral_izquierdo/cintura.png",
                "title": "Cintura",
                "parameters": {
                    "left": 400,
                    "top": 390,
                    "boundingBoxMode": "none",
                    "colorLinkGroup": "cintura",
                    "fill": "#fff",
                     "showInColorSelection": true, "colors" : "frisaColors"
                }
            },
            {
                "type": "image",
                "source": "assets/img/arquitectura/camperas/sin_bolsillos/capucha/cordones/lateral_izquierdo/mangas.png",
                "title": "Mangas",
                "parameters": {
                    "left": 400,
                    "top": 390,
                    "boundingBoxMode": "none",
                    "colorLinkGroup": "mangas",
                    "fill": "#fff",
                     "showInColorSelection": true, "colors" : "frisaColors"
                }
            },
            {
                "type": "image",
                "source": "assets/img/arquitectura/camperas/sin_bolsillos/capucha/cordones/lateral_izquierdo/capucha.png",
                "title": "Capucha",
                "parameters": {
                    "left": 400,
                    "top": 390,
                    "boundingBoxMode": "none",
                    "colorLinkGroup": "capucha",
                    "fill": "#fff",
                     "showInColorSelection": false, "colors" : "frisaColors"
                }
            },
            {
                "type": "image",
                "source": "assets/img/arquitectura/camperas/sin_bolsillos/capucha/cordones/lateral_izquierdo/cordones.png",
                "title": "Cordones",
                "parameters": {
                "left": 400,
                "top": 390,
                "boundingBoxMode": "none",
                "colorLinkGroup": "cordones",
                "fill": "#fff",
                 "showInColorSelection": false, "colors" : "frisaColors"
                }
            }
        ]
    }
]
